module backend/nurse-backend-go

go 1.21.4

require (
	github.com/golang-jwt/jwt/v5 v5.2.0
	github.com/gorilla/handlers v1.5.2
	github.com/gorilla/mux v1.8.1
	go.mongodb.org/mongo-driver v1.13.1
	gopkg.in/mail.v2 v2.3.1
	gorm.io/datatypes v1.2.0
	gorm.io/gorm v1.25.5
)

require (
	github.com/felixge/httpsnoop v1.0.3 // indirect
	github.com/go-sql-driver/mysql v1.7.0 // indirect
	github.com/golang/snappy v0.0.1 // indirect
	github.com/jinzhu/inflection v1.0.0 // indirect
	github.com/jinzhu/now v1.1.5 // indirect
	github.com/klauspost/compress v1.13.6 // indirect
	github.com/mattn/go-sqlite3 v1.14.19 // indirect
	github.com/montanaflynn/stats v0.0.0-20171201202039-1bf9dbcd8cbe // indirect
	github.com/xdg-go/pbkdf2 v1.0.0 // indirect
	github.com/xdg-go/scram v1.1.2 // indirect
	github.com/xdg-go/stringprep v1.0.4 // indirect
	github.com/youmark/pkcs8 v0.0.0-20181117223130-1be2e3e5546d // indirect
	golang.org/x/crypto v0.17.0 // indirect
	golang.org/x/sync v0.0.0-20220722155255-886fb9371eb4 // indirect
	golang.org/x/text v0.14.0 // indirect
	gopkg.in/alexcesaro/quotedprintable.v3 v3.0.0-20150716171945-2caba252f4dc // indirect
	gorm.io/driver/mysql v1.4.7 // indirect
	gorm.io/driver/sqlite v1.5.4 // indirect
)
